{
  "page": 1,
  "per_page": 5,
  "total": 10,
  "total_pages": 2,
  "data": [
    {
      "itemNumber": 1,
      "itemName": "Candy",
      "quantity": 10,
      "pricePerUnit": 1.5,
      "purchased": 0
    },
    {
      "itemNumber": 2,
      "itemName": "Soda (definitely not beer)",
      "quantity": 120,
      "pricePerUnit": 0.15,
      "purchased": 0
    },
    {
      "itemNumber": 3,
      "itemName": "Hot Dogs",
      "quantity": 10000,
      "pricePerUnit": 1,
      "purchased": 0
    },
    {
      "itemNumber": 4,
      "itemName": "Beer",
      "quantity": 1,
      "pricePerUnit": 0.5,
      "purchased": 0
    },
    {
      "itemNumber": 5,
      "itemName": "watermelon (for smashing)",
      "quantity": 109,
      "pricePerUnit": 3,
      "purchased": 0
    }
  ]
}
